\relax 
\citation{vldb2004}
\@writefile{toc}{\contentsline {section}{\numberline {1}Problem Definition.}{1}}
\@writefile{lot}{\contentsline {table}{\numberline {1}{\ignorespaces Notations}}{1}}
\newlabel{default}{{1}{1}}
\@writefile{toc}{\contentsline {section}{\numberline {2}Introduction.}{1}}
\citation{DECISIONTREE}
\citation{EVENTKDD99}
\citation{vldb2004}
\citation{DecisionStreams}
\citation{SelectiveBayes}
\bibcite{BANKSMITH}{1}
\bibcite{EISENSTAT}{2}
\bibcite{GEORGELIU}{3}
\bibcite{LAW}{4}
\bibcite{LIU}{5}
\bibcite{LIU2}{6}
\bibcite{ROSE72}{7}
\bibcite{ROSE76}{8}
\bibcite{ROSEWHITTEN}{9}
\bibcite{SCHREIBER}{10}
\@writefile{toc}{\contentsline {section}{\numberline {3}Related Work.}{2}}
\@writefile{toc}{\contentsline {section}{\numberline {4}Approach}{2}}
\@writefile{toc}{\contentsline {subsection}{\numberline {4.1}Partitioning}{2}}
\@writefile{toc}{\contentsline {subsection}{\numberline {4.2}Why Decision Trees}{2}}
\@writefile{toc}{\contentsline {subsection}{\numberline {4.3}Algorithm}{2}}
\@writefile{toc}{\contentsline {subsection}{\numberline {4.4}Prominence of path}{2}}
\@writefile{toc}{\contentsline {subsection}{\numberline {4.5}prominence of attribute in model}{2}}
\@writefile{toc}{\contentsline {section}{\numberline {5}Experiments}{2}}
\@writefile{toc}{\contentsline {subsection}{\numberline {5.1}Datasets}{2}}
\@writefile{toc}{\contentsline {section}{\numberline {6}Conclusion}{2}}
