\relax 
\citation{Wang}
\citation{Blast}
\citation{Lipman}
\citation{Fasta}
\citation{Hmmer}
\citation{Krogh}
\citation{Bejerano}
\citation{Eskin}
\citation{Homology}
\citation{Leslie}
\citation{Parthasarathy}
\citation{Melvin}
\citation{Darroch}
\citation{Risi}
\citation{ratnaparkhi97}
\citation{Buehler}
\citation{Pintelas}
\citation{Tatti}
\citation{ratnaparkhi98}
\citation{Berger}
\citation{nigam99}
\citation{ratnaparkhi98}
\citation{Buehler}
\@writefile{toc}{\contentsline {section}{\numberline {1}Introduction}{1}}
\citation{ratnaparkhi97}
\citation{Darroch}
\citation{pietra97IIS}
\citation{ratnaparkhi97}
\citation{ratnaparkhi97}
\citation{Malouf}
\citation{Malouf}
\@writefile{toc}{\contentsline {section}{\numberline {2}Problem Definition}{2}}
\newlabel{sec:problemdefn}{{2}{2}}
\newlabel{eq:bformula}{{1}{2}}
\@writefile{toc}{\contentsline {section}{\numberline {3}Maximum Entropy Models}{2}}
\newlabel{sec:maximumentropy}{{3}{2}}
\@writefile{toc}{\contentsline {subsection}{\numberline {3.1}Parameter Estimation}{2}}
\newlabel{eq:extraconst}{{3}{2}}
\@writefile{toc}{\contentsline {subsubsection}{\numberline {3.1.1}The GIS Algorithm}{2}}
\citation{rbnbc_icdm08}
\@writefile{toc}{\contentsline {section}{\numberline {4}Estimating Feature Probabilities}{3}}
\newlabel{sec:probmultifet}{{4}{3}}
\newlabel{eq:inslotoverlap}{{4}{3}}
\newlabel{eq:inslotnonov}{{5}{3}}
\newlabel{eq:actualglobcfetprob}{{6}{3}}
\@writefile{toc}{\contentsline {section}{\numberline {5}Problems with Bayesian Classifier}{3}}
\newlabel{sec:problemNB}{{5}{3}}
\newlabel{eq:postprob}{{7}{3}}
\@writefile{toc}{\contentsline {subsection}{\numberline {5.1}Problem 1: Features Not Represented in the Training Data}{3}}
\newlabel{sec:probNB1}{{5.1}{3}}
\citation{Pintelas}
\citation{Pintelas}
\citation{rbnbc_icdm08}
\citation{Aze-Ferreira}
\citation{Lesh-Zaki}
\citation{rbnbc_icdm08}
\citation{Lesh-Zaki}
\citation{rbnbc_icdm08}
\@writefile{fcd}{\contentsline {figurecode}{\numberline {1}{\ignorespaces {\bf  An example showing the drawback of using a non-uniform feature vector.}}}{4}}
\newlabel{fig:nonuniform}{{1}{4}}
\@writefile{toc}{\contentsline {subsection}{\numberline {5.2}Problem 2: Out of Range Probability Values}{4}}
\newlabel{sec:scaling}{{5.2}{4}}
\@writefile{toc}{\contentsline {section}{\numberline {6}The REBMEC Classifier}{4}}
\newlabel{sec:REBMEC}{{6}{4}}
\@writefile{toc}{\contentsline {subsection}{\numberline {6.1}Feature Extraction}{4}}
\citation{rbnbc_icdm08}
\citation{Lesh-Zaki}
\citation{Pintelas}
\@writefile{toc}{\contentsline {subsection}{\numberline {6.2}Entropy Based Selection of Discriminating Features}{5}}
\newlabel{sec:entropy}{{6.2}{5}}
\@writefile{toc}{\contentsline {subsection}{\numberline {6.3}Classification Phase}{5}}
\newlabel{sec:classification}{{6.3}{5}}
\newlabel{eq:minposprobglob}{{8}{5}}
\@writefile{toc}{\contentsline {subsubsection}{\numberline {6.3.1}Classification Algorithm of REBMEC}{5}}
\newlabel{eq:postproblog}{{9}{6}}
\@writefile{fcd}{\contentsline {figurecode}{\numberline {2}{\ignorespaces {\bf  Classification algorithm of REBMEC.}}}{6}}
\newlabel{fig:classalgoREBMEC}{{2}{6}}
\@writefile{toc}{\contentsline {subsubsection}{\numberline {6.3.2}The ComputeProb Algorithm}{6}}
\newlabel{sec:computeprob}{{6.3.2}{6}}
\@writefile{fcd}{\contentsline {figurecode}{\numberline {3}{\ignorespaces {\bf  The ComputeProb algorithm.}}}{6}}
\newlabel{fig:computeprobREBMEC}{{3}{6}}
\citation{ratnaparkhi98}
\citation{Horn}
\citation{Boeckmann}
\citation{Bateman}
\citation{Bejerano}
\citation{Eskin}
\citation{Ferreira}
\@writefile{toc}{\contentsline {subsubsection}{\numberline {6.3.3}Additional Issues}{7}}
\@writefile{toc}{\contentsline {section}{\numberline {7}Performance Model}{7}}
\newlabel{sec:perfmodel}{{7}{7}}
\citation{Ferreira}
\citation{Bejerano}
\citation{rbnbc_icdm08}
\citation{Ferreira}
\citation{Bejerano}
\citation{Ferreira}
\citation{Aze-Ferreira}
\@writefile{toc}{\contentsline {section}{\numberline {8}Experimental Results}{8}}
\newlabel{sec:Results}{{8}{8}}
\@writefile{lot}{\contentsline {table}{\numberline {1}{\ignorespaces Number of features used in experiments with the Pfam dataset for different $minsup$ values }}{8}}
\newlabel{table:features}{{1}{8}}
\@writefile{lot}{\contentsline {table}{\numberline {2}{\ignorespaces Classification results of Simple NB, Maxent-A and REBMEC for the collection of 211 proteins of 26 families from Pfam 22.0 for different $minsup$ values}}{8}}
\newlabel{table:allminsup}{{2}{8}}
\@writefile{toc}{\contentsline {section}{\numberline {9}Discussion}{8}}
\newlabel{sec:Disc}{{9}{8}}
\@writefile{lot}{\contentsline {table}{\numberline {3}{\ignorespaces Family-wise and Average Classification results of Simple NB, Maxent-A and REBMEC for the collection of 265 GPCRs of 13 families from GPCRDB}}{9}}
\newlabel{table:gpcr}{{3}{9}}
\@writefile{lot}{\contentsline {table}{\numberline {4}{\ignorespaces Family-wise and Average Classification results of Simple NB, Maxent-A, REBMEC, Ferreira et al.'s C model and PST for the collection of 211 proteins of 26 families from Pfam 22.0}}{9}}
\newlabel{table:pfam}{{4}{9}}
\citation{Bateman}
\citation{Horn}
\citation{Andorf}
\citation{Bejerano}
\citation{Eskin}
\citation{Berger}
\citation{nigam99}
\citation{ratnaparkhi98}
\citation{ratnaparkhi98}
\citation{ratnaparkhi98}
\citation{ratnaparkhi98}
\citation{Mccallum98}
\citation{Risi}
\citation{Pavlov}
\citation{Buehler}
\citation{Pavlov}
\citation{Buehler}
\citation{Andorf}
\citation{Ferreira}
\citation{Kang}
\citation{Honavar}
\citation{Andorf}
\citation{Ferreira}
\citation{Aze-Ferreira}
\citation{Kang}
\citation{Honavar}
\@writefile{toc}{\contentsline {section}{\numberline {10}Related Work}{10}}
\newlabel{sec:Relatedwork}{{10}{10}}
\citation{Bejerano}
\citation{Eskin}
\citation{Bejerano}
\citation{Eskin}
\citation{Bejerano}
\citation{Hmmer}
\citation{Krogh}
\citation{Abe}
\citation{Blast}
\citation{Lipman}
\citation{Fasta}
\citation{Fasta}
\citation{Lipman}
\citation{Blast}
\citation{Homology}
\citation{Leslie}
\citation{Parthasarathy}
\citation{Melvin}
\bibstyle{abbrv}
\bibcite{Abe}{1}
\bibcite{Blast}{2}
\bibcite{Andorf}{3}
\bibcite{Bateman}{4}
\bibcite{Bejerano}{5}
\bibcite{Homology}{6}
\bibcite{Berger}{7}
\bibcite{Boeckmann}{8}
\@writefile{toc}{\contentsline {section}{\numberline {11}Conclusions and Future Work}{11}}
\newlabel{sec:Concl}{{11}{11}}
\bibcite{Buehler}{9}
\bibcite{Darroch}{10}
\bibcite{Hmmer}{11}
\bibcite{Eskin}{12}
\bibcite{Ferreira}{13}
\bibcite{Aze-Ferreira}{14}
\bibcite{Horn}{15}
\bibcite{Kang}{16}
\bibcite{Honavar}{17}
\bibcite{Pintelas}{18}
\bibcite{Krogh}{19}
\bibcite{Lesh-Zaki}{20}
\bibcite{Leslie}{21}
\bibcite{Lipman}{22}
\bibcite{Malouf}{23}
\bibcite{Parthasarathy}{24}
\bibcite{Mccallum98}{25}
\bibcite{Melvin}{26}
\bibcite{nigam99}{27}
\bibcite{Pavlov}{28}
\bibcite{Fasta}{29}
\bibcite{pietra97IIS}{30}
\bibcite{rbnbc_icdm08}{31}
\bibcite{ratnaparkhi97}{32}
\bibcite{ratnaparkhi98}{33}
\bibcite{Tatti}{34}
\bibcite{Risi}{35}
\bibcite{Wang}{36}
