\relax 
\providecommand\HyperFirstAtBeginDocument{\AtBeginDocument}
\HyperFirstAtBeginDocument{\ifx\hyper@anchor\@undefined
\global\let\oldcontentsline\contentsline
\gdef\contentsline#1#2#3#4{\oldcontentsline{#1}{#2}{#3}}
\global\let\oldnewlabel\newlabel
\gdef\newlabel#1#2{\newlabelxx{#1}#2}
\gdef\newlabelxx#1#2#3#4#5#6{\oldnewlabel{#1}{{#2}{#3}}}
\AtEndDocument{\ifx\hyper@anchor\@undefined
\let\contentsline\oldcontentsline
\let\newlabel\oldnewlabel
\fi}
\fi}
\global\let\hyper@last\relax 
\gdef\HyperFirstAtBeginDocument#1{#1}
\providecommand\HyField@AuxAddToFields[1]{}
\@writefile{toc}{\beamer@endinputifotherversion {3.20pt}}
\@writefile{nav}{\beamer@endinputifotherversion {3.20pt}}
\@writefile{nav}{\headcommand {\slideentry {0}{0}{1}{1/1}{}{0}}}
\@writefile{nav}{\headcommand {\beamer@framepages {1}{1}}}
\@writefile{nav}{\headcommand {\sectionentry {1}{Outline}{2}{Outline}{0}}}
\@writefile{nav}{\headcommand {\beamer@sectionpages {1}{1}}}
\@writefile{nav}{\headcommand {\beamer@subsectionpages {1}{1}}}
\@writefile{nav}{\headcommand {\slideentry {1}{0}{2}{2/2}{}{0}}}
\@writefile{nav}{\headcommand {\beamer@framepages {2}{2}}}
\@writefile{toc}{\beamer@sectionintoc {2}{Introduction}{3}{0}{1}}
\@writefile{nav}{\headcommand {\sectionentry {2}{Introduction}{3}{Introduction}{0}}}
\@writefile{nav}{\headcommand {\beamer@sectionpages {2}{2}}}
\@writefile{nav}{\headcommand {\beamer@subsectionpages {2}{2}}}
\@writefile{toc}{\beamer@subsectionintoc {2}{1}{Concept Drift}{3}{0}{1}}
\@writefile{nav}{\headcommand {\beamer@subsectionentry {0}{2}{1}{3}{Concept Drift}}\headcommand {\beamer@subsectionpages {3}{2}}}
\@writefile{nav}{\headcommand {\slideentry {2}{1}{1}{3/3}{Concept Drift}{0}}}
\@writefile{nav}{\headcommand {\beamer@framepages {3}{3}}}
\@writefile{toc}{\beamer@subsectionintoc {2}{2}{Learning System}{4}{0}{1}}
\@writefile{nav}{\headcommand {\beamer@subsectionentry {0}{2}{2}{4}{Learning System}}\headcommand {\beamer@subsectionpages {3}{3}}}
\@writefile{nav}{\headcommand {\slideentry {2}{2}{1}{4/4}{Learning System}{0}}}
\@writefile{nav}{\headcommand {\beamer@framepages {4}{4}}}
\@writefile{toc}{\beamer@sectionintoc {3}{Problem Definition}{5}{0}{2}}
\@writefile{nav}{\headcommand {\sectionentry {3}{Problem Definition}{5}{Problem Definition}{0}}}
\@writefile{nav}{\headcommand {\beamer@sectionpages {3}{4}}}
\@writefile{nav}{\headcommand {\beamer@subsectionpages {4}{4}}}
\@writefile{toc}{\beamer@subsectionintoc {3}{1}{Intuition}{5}{0}{2}}
\@writefile{nav}{\headcommand {\beamer@subsectionentry {0}{3}{1}{5}{Intuition}}\headcommand {\beamer@subsectionpages {5}{4}}}
\@writefile{nav}{\headcommand {\slideentry {3}{1}{1}{5/5}{Intuition}{0}}}
\@writefile{nav}{\headcommand {\beamer@framepages {5}{5}}}
\@writefile{toc}{\beamer@subsectionintoc {3}{2}{Contributions}{6}{0}{2}}
\@writefile{nav}{\headcommand {\beamer@subsectionentry {0}{3}{2}{6}{Contributions}}\headcommand {\beamer@subsectionpages {5}{5}}}
\@writefile{nav}{\headcommand {\slideentry {3}{2}{1}{6/9}{Contributions}{0}}}
\@writefile{nav}{\headcommand {\beamer@framepages {6}{9}}}
\@writefile{toc}{\beamer@subsectionintoc {3}{3}{Formal Problem Statement}{10}{0}{2}}
\@writefile{nav}{\headcommand {\beamer@subsectionentry {0}{3}{3}{10}{Formal Problem Statement}}\headcommand {\beamer@subsectionpages {6}{9}}}
\@writefile{nav}{\headcommand {\slideentry {3}{3}{1}{10/10}{Formal Problem Statement}{0}}}
\@writefile{nav}{\headcommand {\beamer@framepages {10}{10}}}
\@writefile{toc}{\beamer@sectionintoc {4}{Related Work}{11}{0}{3}}
\@writefile{nav}{\headcommand {\sectionentry {4}{Related Work}{11}{Related Work}{0}}}
\@writefile{nav}{\headcommand {\beamer@sectionpages {5}{10}}}
\@writefile{nav}{\headcommand {\beamer@subsectionpages {10}{10}}}
\@writefile{toc}{\beamer@subsectionintoc {4}{1}{Data Mining Stand point}{11}{0}{3}}
\@writefile{nav}{\headcommand {\beamer@subsectionentry {0}{4}{1}{11}{Data Mining Stand point}}\headcommand {\beamer@subsectionpages {11}{10}}}
\@writefile{nav}{\headcommand {\slideentry {4}{1}{1}{11/11}{Data Mining Stand point}{0}}}
\@writefile{nav}{\headcommand {\beamer@framepages {11}{11}}}
\@writefile{toc}{\beamer@subsectionintoc {4}{2}{Mathematical Stand point}{12}{0}{3}}
\@writefile{nav}{\headcommand {\beamer@subsectionentry {0}{4}{2}{12}{Mathematical Stand point}}\headcommand {\beamer@subsectionpages {11}{11}}}
\@writefile{nav}{\headcommand {\slideentry {4}{2}{1}{12/12}{Mathematical Stand point}{0}}}
\@writefile{nav}{\headcommand {\beamer@framepages {12}{12}}}
\@writefile{nav}{\headcommand {\slideentry {4}{2}{2}{13/13}{Mathematical Stand point}{0}}}
\@writefile{nav}{\headcommand {\beamer@framepages {13}{13}}}
\@writefile{toc}{\beamer@sectionintoc {5}{Subproblems}{14}{0}{4}}
\@writefile{nav}{\headcommand {\sectionentry {5}{Subproblems}{14}{Subproblems}{0}}}
\@writefile{nav}{\headcommand {\beamer@sectionpages {11}{13}}}
\@writefile{nav}{\headcommand {\beamer@subsectionpages {12}{13}}}
\@writefile{nav}{\headcommand {\slideentry {5}{0}{3}{14/14}{}{0}}}
\@writefile{nav}{\headcommand {\beamer@framepages {14}{14}}}
\@writefile{toc}{\beamer@sectionintoc {6}{Algorithm}{15}{0}{5}}
\@writefile{nav}{\headcommand {\sectionentry {6}{Algorithm}{15}{Algorithm}{0}}}
\@writefile{nav}{\headcommand {\beamer@sectionpages {14}{14}}}
\@writefile{nav}{\headcommand {\beamer@subsectionpages {14}{14}}}
\@writefile{toc}{\beamer@subsectionintoc {6}{1}{Framework}{15}{0}{5}}
\@writefile{nav}{\headcommand {\beamer@subsectionentry {0}{6}{1}{15}{Framework}}\headcommand {\beamer@subsectionpages {15}{14}}}
\@writefile{nav}{\headcommand {\slideentry {6}{1}{1}{15/15}{Framework}{0}}}
\@writefile{nav}{\headcommand {\beamer@framepages {15}{15}}}
\@writefile{nav}{\headcommand {\slideentry {6}{1}{2}{16/16}{Framework}{0}}}
\@writefile{nav}{\headcommand {\beamer@framepages {16}{16}}}
\@writefile{nav}{\headcommand {\beamer@partpages {1}{16}}}
\@writefile{nav}{\headcommand {\beamer@subsectionpages {15}{16}}}
\@writefile{nav}{\headcommand {\beamer@sectionpages {15}{16}}}
\@writefile{nav}{\headcommand {\beamer@documentpages {16}}}
\@writefile{nav}{\headcommand {\def \inserttotalframenumber {13}}}
